%YAML 1.1
%TAG !u! tag:unity3d.com,2011:
--- !u!114 &11400000
MonoBehaviour:
  m_ObjectHideFlags: 0
  m_CorrespondingSourceObject: {fileID: 0}
  m_PrefabInternal: {fileID: 0}
  m_GameObject: {fileID: 0}
  m_Enabled: 1
  m_EditorHideFlags: 0
  m_Script: {fileID: 11500000, guid: bc777bea1a4bcf44b9ac73ee8ec5d793, type: 3}
  m_Name: Sea
  m_EditorClassIdentifier: 
  autoUpdate: 0
  name: Sea
  layers:
  - texture: {fileID: 2800000, guid: cc272f6c26dccfb4da9e99a0301fd026, type: 3}
    tint: {r: 0, g: 0.10661459, b: 1, a: 0}
    tintStrength: 0.657
    startHeight: 0
    blendStrength: 0
    textureScale: 36
