%YAML 1.1
%TAG !u! tag:unity3d.com,2011:
--- !u!114 &11400000
MonoBehaviour:
  m_ObjectHideFlags: 0
  m_CorrespondingSourceObject: {fileID: 0}
  m_PrefabInternal: {fileID: 0}
  m_GameObject: {fileID: 0}
  m_Enabled: 1
  m_EditorHideFlags: 0
  m_Script: {fileID: 11500000, guid: 9cdcbb92242863148a129fc02aa28af3, type: 3}
  m_Name: Flat
  m_EditorClassIdentifier: 
  autoUpdate: 0
  name: Flat
  noiseSettings:
    normalizeMode: 1
    scale: 40
    octaves: 2
    persistance: 0.15
    lacunarity: 1.5
    seed: 0
    offset: {x: 0, y: 0}
  useFalloff: 0
  heightMultiplier: 8.84
  heightCurve:
    serializedVersion: 2
    m_Curve:
    - serializedVersion: 3
      time: 0
      value: 0
      inSlope: 1
      outSlope: 1
      tangentMode: 34
      weightedMode: 0
      inWeight: 0
      outWeight: 0
    - serializedVersion: 3
      time: 1
      value: 1
      inSlope: 1
      outSlope: 1
      tangentMode: 34
      weightedMode: 0
      inWeight: 0
      outWeight: 0
    m_PreInfinity: 2
    m_PostInfinity: 2
    m_RotationOrder: 4
